<svg xmlns="http://www.w3.org/2000/svg" width="503.169" height="119.436" viewBox="0 0 503.169 119.436">
  <g id="Group_5" data-name="Group 5" transform="translate(-94.912 -225.827)">
    <g id="Group_1" data-name="Group 1" transform="translate(94.912 227.208)">
      <path id="Path_1" data-name="Path 1" d="M190,289.4v33.518H156.483l0-33.517H190m9.227-9.227H147.251l0,51.971,51.969,0V280.171Z" transform="translate(-82.653 -214.479)" fill="#fff"/>
      <path id="Path_2" data-name="Path 2" d="M137.66,289.4v33.518h-33.52V289.4h33.52m9.226-9.227H94.912v51.974h51.973V280.171Z" transform="translate(-94.912 -214.479)" fill="#fff"/>
      <path id="Path_3" data-name="Path 3" d="M137.662,236.173v33.518h-33.52l0-33.517h33.523m9.23-9.227H94.912l0,51.971,51.976,0V226.946Z" transform="translate(-94.912 -226.946)" fill="#fff" opacity="0.3"/>
      <path id="Path_4" data-name="Path 4" d="M190,236.173l0,33.518H156.479l0-33.517H190m9.227-9.227H147.255l0,51.971,51.977,0,0-51.974Z" transform="translate(-82.653 -226.946)" fill="#fff"/>
    </g>
    <g id="Group_2" data-name="Group 2" transform="translate(241.107 225.827)">
      <path id="Path_5" data-name="Path 5" d="M213.362,227.145h28.672v1.978q-4.836,0-6.859,1.408-2.418,1.714-2.42,6.333v19.174h1.233a2.977,2.977,0,0,0,1.977-.439L253.734,238.4q3.782-3.7,3.782-6.025,0-3.034-6.419-3.256v-1.978h25.33v1.978a19.987,19.987,0,0,0-7.124,1.189,20.852,20.852,0,0,0-5.938,4.221l-18.733,17.812,29.817,34.435q2.2,2.507,6.729,2.507v1.978H251.755v-1.978q7.126-.044,7.125-2.331,0-1.011-1.8-3.166l-20.451-24.5q-.568-.661-3.077-.617h-.792V281.9q0,4.576,2.287,6.113,1.805,1.233,6.6,1.276v1.978H213.362v-1.978q5.056-.133,6.949-1.276,2.594-1.625,2.593-6.288V237.129q0-4.706-2.505-6.509-2.11-1.494-7.036-1.5Z" transform="translate(-213.362 -225.518)" fill="#fff"/>
      <path id="Path_6" data-name="Path 6" d="M287.81,288.71a20.129,20.129,0,0,1-15.567-6.772,24.4,24.4,0,0,1,.218-32.457,21.2,21.2,0,0,1,16.141-6.729q9.936,0,15.876,6.465,5.761,6.245,5.76,16.229,0,10.158-6.113,16.623Q297.925,288.711,287.81,288.71Zm1.8-2.551q11.963,0,11.963-16.931a36.646,36.646,0,0,0-2.992-15.348q-3.956-8.62-11.652-8.62a10.36,10.36,0,0,0-9.631,5.8,23.784,23.784,0,0,0-2.551,11.612A34.029,34.029,0,0,0,278,277.76Q282.139,286.159,289.612,286.159Z" transform="translate(-200.992 -221.863)" fill="#fff"/>
      <path id="Path_7" data-name="Path 7" d="M342.2,272.482l1.365,1.1q-3.916,7.52-7.477,10.732a17.251,17.251,0,0,1-12.05,4.4q-9.151,0-14.337-6.553-4.795-5.982-4.795-15.349,0-9.764,5.1-16.535a17.889,17.889,0,0,1,15.084-7.521q7.961,0,12.4,4.883,4.136,4.615,4.62,12.664H312.294q-.043,9.1,3.3,14.69,4.049,6.861,12.578,6.86Q336.13,281.849,342.2,272.482Zm-29.6-15.042h19.7l.616-.616q-.528-11.169-9.457-11.17a9.781,9.781,0,0,0-7.827,3.519A13.8,13.8,0,0,0,312.6,257.441Z" transform="translate(-191.919 -221.863)" fill="#fff"/>
      <path id="Path_8" data-name="Path 8" d="M359.485,288.434h-1.714L341.454,250.7q-1.937-4.569-5.191-5.1v-1.671h19.7V245.6q-5.85-.043-5.848,3.03a9.226,9.226,0,0,0,.7,3.426l9.942,24.285,9.894-24.549a8.723,8.723,0,0,0,.7-3.074q0-2.764-5.1-3.118v-1.671H380.2V245.6a4.827,4.827,0,0,0-3.565,2.373q-.352.57-1.846,4.084Z" transform="translate(-184.575 -221.587)" fill="#fff"/>
      <path id="Path_9" data-name="Path 9" d="M402.972,258.736h12.906V259.9a6.583,6.583,0,0,0-4.957,3.039q-.443.6-3.024,5.334a54.419,54.419,0,0,1-6,8.969,21.346,21.346,0,0,0,4.753,4.291,11.082,11.082,0,0,0,5.938,2.116q3.208,0,5.4-3.427l.862,1.4a25.576,25.576,0,0,1-4.2,4.59,9.116,9.116,0,0,1-5.75,2.086q-5.9,0-10.908-6.288-6.822,6.289-14.243,6.288a11.747,11.747,0,0,1-8.077-2.741,9.746,9.746,0,0,1-3.278-7.778,12.7,12.7,0,0,1,4.322-9.447,39.731,39.731,0,0,1,9-5.87,23.812,23.812,0,0,1-2.086-8.851,10.367,10.367,0,0,1,2.979-7.583A10.106,10.106,0,0,1,394.123,243q7.779,0,7.778,7a9.551,9.551,0,0,1-3.249,7.212,52.008,52.008,0,0,1-6.764,4.589,104.161,104.161,0,0,0,8.522,13.647q6.232-7.6,6.227-12.663,0-2.8-3.666-2.891Zm-16.328,5.691a20.328,20.328,0,0,0-5.633,3.9,9.029,9.029,0,0,0-2.383,6.287,10.484,10.484,0,0,0,2.592,7.064,8.47,8.47,0,0,0,6.7,3.129q3.818,0,8.7-4.351A62.9,62.9,0,0,1,386.645,264.427ZM391.2,259.9q7.752-4.023,7.749-10.191,0-5.008-4.828-5.007-5.125,0-5.126,6.346Q389,254.089,391.2,259.9Z" transform="translate(-176.11 -221.804)" fill="#fff"/>
      <path id="Path_10" data-name="Path 10" d="M473.337,226.618l1.888,21.023h-2.154a26.283,26.283,0,0,0-7.739-12.931,20.467,20.467,0,0,0-13.986-5.1,21.664,21.664,0,0,0-18.384,9.455q-6.2,8.533-6.2,20.451,0,12.226,6.07,20.668a21.535,21.535,0,0,0,18.515,9.5q13.413,0,23.442-12.446l1.8,1.275a31.753,31.753,0,0,1-11.986,10.775,33.906,33.906,0,0,1-15.854,3.826q-14.47,0-23.792-8.884-9.546-9.059-9.544-23.441,0-14.776,9.9-24.869t24.627-10.094a43.212,43.212,0,0,1,14.295,2.771,17.377,17.377,0,0,0,4.264,1.186q3.034,0,2.771-3.166Z" transform="translate(-166.034 -225.827)" fill="#fff"/>
      <path id="Path_11" data-name="Path 11" d="M488.294,288.867a20.46,20.46,0,0,1-15.824-6.883A24.8,24.8,0,0,1,472.694,249a21.542,21.542,0,0,1,16.4-6.839q10.1,0,16.137,6.57,5.854,6.348,5.855,16.494,0,10.327-6.213,16.9Q498.575,288.868,488.294,288.867Zm1.833-2.592q12.158,0,12.159-17.209a37.285,37.285,0,0,0-3.039-15.6q-4.023-8.759-11.846-8.761a10.541,10.541,0,0,0-9.79,5.9,24.187,24.187,0,0,0-2.591,11.8,34.583,34.583,0,0,0,3.306,15.332Q482.528,286.276,490.126,286.275Z" transform="translate(-154.115 -222.002)" fill="#fff"/>
    </g>
    <g id="Group_3" data-name="Group 3" transform="translate(250.315 320.205)">
      <path id="Path_12" data-name="Path 12" d="M220.823,302.437h2.788v22.129h13.9v2.577H220.823Z" transform="translate(-220.823 -302.261)" fill="#fff"/>
      <path id="Path_13" data-name="Path 13" d="M248.07,302.294h2.61l11.26,24.882h-3l-2.894-6.529H242.6l-2.929,6.529h-2.857Zm6.881,15.846-5.611-12.6-5.648,12.6Z" transform="translate(-217.078 -302.294)" fill="#fff"/>
      <path id="Path_14" data-name="Path 14" d="M257,302.45h3.036l7.059,20.575,6.775-20.645h2.3l6.776,20.645L290,302.45h2.929l-8.825,24.882h-2.364l-6.776-20.046-6.81,20.046h-2.33Z" transform="translate(-212.349 -302.274)" fill="#fff"/>
      <path id="Path_15" data-name="Path 15" d="M298.789,302.437H316.54v2.576H301.576v8.823h13.375v2.541H301.576v10.765h-2.787Z" transform="translate(-202.561 -302.261)" fill="#fff"/>
      <path id="Path_16" data-name="Path 16" d="M317.75,302.437h2.788v24.706H317.75Z" transform="translate(-198.12 -302.261)" fill="#fff"/>
      <path id="Path_17" data-name="Path 17" d="M325.873,302.437h10.622a9.734,9.734,0,0,1,7.024,2.471,6.873,6.873,0,0,1,1.906,4.939c0,4.1-2.824,6.495-6.706,7.2l7.587,10.095h-3.421l-7.166-9.6h-7.057v9.6h-2.788Zm10.375,12.6c3.708,0,6.353-1.906,6.353-5.153,0-3.035-2.329-4.87-6.317-4.87h-7.623v10.023Z" transform="translate(-196.217 -302.261)" fill="#fff"/>
      <path id="Path_18" data-name="Path 18" d="M346.551,302.437h2.822l9,13.482,9-13.482H370.2v24.706h-2.786V307.131l-9,13.235h-.141l-9-13.2v19.976h-2.718Z" transform="translate(-191.373 -302.261)" fill="#fff"/>
    </g>
  </g>
</svg>
